[gd_scene load_steps=4 format=2]

[ext_resource path="res://assets/sprites/gun_sight_left.png" type="Texture" id=1]
[ext_resource path="res://assets/sounds/shot_1.wav" type="AudioStream" id=2]


[sub_resource type="CircleShape2D" id=1]

[node name="gun_sight_left" type="Area2D"]
collision_layer = 9
collision_mask = 4

[node name="sprite" type="Sprite" parent="."]
light_mask = -2147483647
z_index = 10
texture = ExtResource( 1 )

[node name="CollisionShape2D" type="CollisionShape2D" parent="."]
shape = SubResource( 1 )

[node name="shot" type="AudioStreamPlayer2D" parent="."]
stream = ExtResource( 2 )
